[
  {
    "type": "post",
    "url": "/api/admin/remove_order",
    "title": "Удалить заявку",
    "name": "Remove_order",
    "group": "Admin",
    "parameter": {
      "fields": {
        "Parameter": [
          {
            "group": "Parameter",
            "type": "<p>String</p> ",
            "optional": false,
            "field": "token",
            "description": "<p>токен пользователя</p> "
          },
          {
            "group": "Parameter",
            "type": "<p>Number</p> ",
            "optional": false,
            "field": "id",
            "description": "<p>id заявки</p> "
          }
        ]
      },
      "examples": [
        {
          "title": "Request-Example:",
          "content": "{\n\"token\": \"L34CYRECGQFZMFK7DMLBJCK7BFLFKXV2MOTGOPYGC5OVBEEI677OEO6BZYTWTIG3AZNSYV5OQ7B2TGLSF2XN5566IVOJSK4D3I3DP4EVX\",\n\"id\":74\n   \n}",
          "type": "json"
        }
      ]
    },
    "sampleRequest": [
      {
        "url": "http://buildapp.dev-xelentec.com:1340/api/admin/remove_order"
      }
    ],
    "version": "0.0.0",
    "filename": "./apidoc/api.js",
    "groupTitle": "Admin"
  },
  {
    "type": "post",
    "url": "/api/admin/remove_user",
    "title": "Удалить пользователя",
    "name": "Remove_user",
    "group": "Admin",
    "parameter": {
      "fields": {
        "Parameter": [
          {
            "group": "Parameter",
            "type": "<p>String</p> ",
            "optional": false,
            "field": "token",
            "description": "<p>токен пользователя</p> "
          },
          {
            "group": "Parameter",
            "type": "<p>Number</p> ",
            "optional": false,
            "field": "id",
            "description": "<p>id пользователя</p> "
          }
        ]
      },
      "examples": [
        {
          "title": "Request-Example:",
          "content": "{\n\"token\": \"L34CYRECGQFZMFK7DMLBJCK7BFLFKXV2MOTGOPYGC5OVBEEI677OEO6BZYTWTIG3AZNSYV5OQ7B2TGLSF2XN5566IVOJSK4D3I3DP4EVX\",\n\"id\":74\n   \n}",
          "type": "json"
        }
      ]
    },
    "sampleRequest": [
      {
        "url": "http://buildapp.dev-xelentec.com:1340/api/admin/remove_user"
      }
    ],
    "version": "0.0.0",
    "filename": "./apidoc/api.js",
    "groupTitle": "Admin"
  },
  {
    "type": "post",
    "url": "/api/admin/get_all_users",
    "title": "Пользователи",
    "name": "Users",
    "group": "Admin",
    "parameter": {
      "fields": {
        "Parameter": [
          {
            "group": "Parameter",
            "type": "<p>String</p> ",
            "optional": false,
            "field": "token",
            "description": "<p>токен пользователя</p> "
          },
          {
            "group": "Parameter",
            "type": "<p>Number</p> ",
            "optional": false,
            "field": "page",
            "description": "<p>номер страницы</p> "
          },
          {
            "group": "Parameter",
            "type": "<p>Number</p> ",
            "optional": false,
            "field": "limit",
            "description": "<p>количество записей на странице</p> "
          }
        ]
      },
      "examples": [
        {
          "title": "Request-Example:",
          "content": "{\n\"token\": \"L34CYRECGQFZMFK7DMLBJCK7BFLFKXV2MOTGOPYGC5OVBEEI677OEO6BZYTWTIG3AZNSYV5OQ7B2TGLSF2XN5566IVOJSK4D3I3DP4EVX\",\n  \"page\":1,\n\"limit\":100\n   \n}",
          "type": "json"
        }
      ]
    },
    "sampleRequest": [
      {
        "url": "http://buildapp.dev-xelentec.com:1340/api/admin/get_all_users"
      }
    ],
    "version": "0.0.0",
    "filename": "./apidoc/api.js",
    "groupTitle": "Admin"
  },
  {
    "type": "post",
    "url": "/api/order/new",
    "title": "Новая заявка",
    "name": "Add_order",
    "group": "Order",
    "parameter": {
      "fields": {
        "Parameter": [
          {
            "group": "Parameter",
            "type": "<p>String</p> ",
            "optional": false,
            "field": "token",
            "description": "<p>токен пользователя</p> "
          },
          {
            "group": "Parameter",
            "type": "<p>String</p> ",
            "optional": false,
            "field": "name",
            "description": "<p>Название обяьвления</p> "
          },
          {
            "group": "Parameter",
            "type": "<p>Number</p> ",
            "optional": false,
            "field": "city",
            "description": "<p>id города</p> "
          },
          {
            "group": "Parameter",
            "type": "<p>Number</p> ",
            "optional": false,
            "field": "skill",
            "description": "<p>id навыка</p> "
          },
          {
            "group": "Parameter",
            "type": "<p>String</p> ",
            "optional": false,
            "field": "text",
            "description": "<p>Содержание обяьвления</p> "
          },
          {
            "group": "Parameter",
            "type": "<p>Array</p> ",
            "optional": false,
            "field": "photos",
            "description": "<p>Массив URL-ов фото заявки</p> "
          }
        ]
      },
      "examples": [
        {
          "title": "Request-Example:",
          "content": "{\n\"token\": \"L34CYRECGQFZMFK7DMLBJCK7BFLFKXV2MOTGOPYGC5OVBEEI677OEO6BZYTWTIG3AZNSYV5OQ7B2TGLSF2XN5566IVOJSK4D3I3DP4EVX\",\n\"name\":\"order name\",\n\"city\":12,\n\"skill\":121212,\n\"text\":\"order text\",\n\"photos\":[\"123\",\"345\",\"567\"]\n}",
          "type": "json"
        }
      ]
    },
    "sampleRequest": [
      {
        "url": "http://buildapp.dev-xelentec.com:1340/api/order/new"
      }
    ],
    "version": "0.0.0",
    "filename": "./apidoc/api.js",
    "groupTitle": "Order"
  },
  {
    "type": "post",
    "url": "/api/order/close",
    "title": "Закрыть заявку/Удалить",
    "name": "Close_order",
    "group": "Order",
    "parameter": {
      "fields": {
        "Parameter": [
          {
            "group": "Parameter",
            "type": "<p>String</p> ",
            "optional": false,
            "field": "token",
            "description": "<p>токен пользователя</p> "
          },
          {
            "group": "Parameter",
            "type": "<p>Number</p> ",
            "optional": false,
            "field": "id",
            "description": "<p>id заявки</p> "
          }
        ]
      },
      "examples": [
        {
          "title": "Request-Example:",
          "content": "{\n\"token\": \"L34CYRECGQFZMFK7DMLBJCK7BFLFKXV2MOTGOPYGC5OVBEEI677OEO6BZYTWTIG3AZNSYV5OQ7B2TGLSF2XN5566IVOJSK4D3I3DP4EVX\",\n\"id\":74\n   \n}",
          "type": "json"
        }
      ]
    },
    "sampleRequest": [
      {
        "url": "http://buildapp.dev-xelentec.com:1340/api/order/close"
      }
    ],
    "version": "0.0.0",
    "filename": "./apidoc/api.js",
    "groupTitle": "Order"
  },
  {
    "type": "post",
    "url": "/api/order/follow",
    "title": "Подписаться на заявку",
    "name": "Follow_order",
    "group": "Order",
    "parameter": {
      "fields": {
        "Parameter": [
          {
            "group": "Parameter",
            "type": "<p>String</p> ",
            "optional": false,
            "field": "token",
            "description": "<p>токен пользователя</p> "
          },
          {
            "group": "Parameter",
            "type": "<p>Number</p> ",
            "optional": false,
            "field": "id",
            "description": "<p>id заявки</p> "
          }
        ]
      },
      "examples": [
        {
          "title": "Request-Example:",
          "content": "{\n\"token\": \"L34CYRECGQFZMFK7DMLBJCK7BFLFKXV2MOTGOPYGC5OVBEEI677OEO6BZYTWTIG3AZNSYV5OQ7B2TGLSF2XN5566IVOJSK4D3I3DP4EVX\",\n\"id\":74\n   \n}",
          "type": "json"
        }
      ]
    },
    "sampleRequest": [
      {
        "url": "http://buildapp.dev-xelentec.com:1340/api/order/follow"
      }
    ],
    "version": "0.0.0",
    "filename": "./apidoc/api.js",
    "groupTitle": "Order"
  },
  {
    "type": "post",
    "url": "/api/order/get_followed",
    "title": "Заявки, на которые подписан",
    "name": "Followed_orders",
    "group": "Order",
    "parameter": {
      "fields": {
        "Parameter": [
          {
            "group": "Parameter",
            "type": "<p>String</p> ",
            "optional": false,
            "field": "token",
            "description": "<p>токен пользователя</p> "
          },
          {
            "group": "Parameter",
            "type": "<p>Number</p> ",
            "optional": false,
            "field": "page",
            "description": "<p>номер страницы</p> "
          },
          {
            "group": "Parameter",
            "type": "<p>Number</p> ",
            "optional": false,
            "field": "limit",
            "description": "<p>количество записей на странице</p> "
          }
        ]
      },
      "examples": [
        {
          "title": "Request-Example:",
          "content": "{\n\"token\": \"L34CYRECGQFZMFK7DMLBJCK7BFLFKXV2MOTGOPYGC5OVBEEI677OEO6BZYTWTIG3AZNSYV5OQ7B2TGLSF2XN5566IVOJSK4D3I3DP4EVX\",\n  \"page\":1,\n\"limit\":100\n   \n}",
          "type": "json"
        }
      ]
    },
    "sampleRequest": [
      {
        "url": "http://buildapp.dev-xelentec.com:1340/api/order/get_followed"
      }
    ],
    "version": "0.0.0",
    "filename": "./apidoc/api.js",
    "groupTitle": "Order"
  },
  {
    "type": "post",
    "url": "/api/order/get_one",
    "title": "Получение заявки по id",
    "name": "Get_order",
    "group": "Order",
    "parameter": {
      "fields": {
        "Parameter": [
          {
            "group": "Parameter",
            "type": "<p>String</p> ",
            "optional": false,
            "field": "token",
            "description": "<p>токен пользователя</p> "
          },
          {
            "group": "Parameter",
            "type": "<p>Number</p> ",
            "optional": false,
            "field": "id",
            "description": "<p>id заявки</p> "
          }
        ]
      },
      "examples": [
        {
          "title": "Request-Example:",
          "content": "{\n\"token\": \"L34CYRECGQFZMFK7DMLBJCK7BFLFKXV2MOTGOPYGC5OVBEEI677OEO6BZYTWTIG3AZNSYV5OQ7B2TGLSF2XN5566IVOJSK4D3I3DP4EVX\",\n\"id\":74\n   \n}",
          "type": "json"
        }
      ]
    },
    "sampleRequest": [
      {
        "url": "http://buildapp.dev-xelentec.com:1340/api/order/get_one"
      }
    ],
    "version": "0.0.0",
    "filename": "./apidoc/api.js",
    "groupTitle": "Order"
  },
  {
    "type": "post",
    "url": "/api/order/get_all",
    "title": "Получение списка заявок ( с возможностью фильтрации и пагинацией)",
    "name": "Get_orders_list",
    "group": "Order",
    "parameter": {
      "fields": {
        "Parameter": [
          {
            "group": "Parameter",
            "type": "<p>String</p> ",
            "optional": false,
            "field": "token",
            "description": "<p>токен пользователя</p> "
          },
          {
            "group": "Parameter",
            "type": "<p>Number</p> ",
            "optional": true,
            "field": "city",
            "description": "<p>id города</p> "
          },
          {
            "group": "Parameter",
            "type": "<p>Number</p> ",
            "optional": true,
            "field": "skill",
            "description": "<p>id навыка</p> "
          },
          {
            "group": "Parameter",
            "type": "<p>Boolean</p> ",
            "optional": true,
            "field": "closed",
            "description": "<p>статус заявок</p> "
          },
          {
            "group": "Parameter",
            "type": "<p>Number</p> ",
            "optional": false,
            "field": "page",
            "description": "<p>номер страницы (1,2,3 .... )</p> "
          },
          {
            "group": "Parameter",
            "type": "<p>Number</p> ",
            "optional": false,
            "field": "limit",
            "description": "<p>количество записей на странице</p> "
          }
        ]
      },
      "examples": [
        {
          "title": "Request-Example:",
          "content": "{\n\"token\": \"L34CYRECGQFZMFK7DMLBJCK7BFLFKXV2MOTGOPYGC5OVBEEI677OEO6BZYTWTIG3AZNSYV5OQ7B2TGLSF2XN5566IVOJSK4D3I3DP4EVX\",\n\"page\":1,\n\"limit\":100,\n\"skill\":2,\n\"city\":12\n   \n}",
          "type": "json"
        }
      ]
    },
    "sampleRequest": [
      {
        "url": "http://buildapp.dev-xelentec.com:1340/api/order/get_all"
      }
    ],
    "version": "0.0.0",
    "filename": "./apidoc/api.js",
    "groupTitle": "Order"
  },
  {
    "type": "post",
    "url": "/api/order/mark",
    "title": "Оценить исполнителя",
    "name": "Mark_user",
    "group": "Order",
    "parameter": {
      "fields": {
        "Parameter": [
          {
            "group": "Parameter",
            "type": "<p>String</p> ",
            "optional": false,
            "field": "token",
            "description": "<p>токен пользователя</p> "
          },
          {
            "group": "Parameter",
            "type": "<p>Number</p> ",
            "optional": false,
            "field": "id",
            "description": "<p>id заявки</p> "
          },
          {
            "group": "Parameter",
            "type": "<p>Number</p> ",
            "optional": false,
            "field": "user_id",
            "description": "<p>id исполнителя</p> "
          },
          {
            "group": "Parameter",
            "type": "<p>Number</p> ",
            "optional": false,
            "field": "mark",
            "description": "<p>оценка (0-5)</p> "
          }
        ]
      }
    },
    "sampleRequest": [
      {
        "url": "http://buildapp.dev-xelentec.com:1340/api/order/mark"
      }
    ],
    "version": "0.0.0",
    "filename": "./apidoc/api.js",
    "groupTitle": "Order"
  },
  {
    "type": "post",
    "url": "/api/order/get_mine",
    "title": "Мои заявки",
    "name": "My_orders",
    "group": "Order",
    "parameter": {
      "fields": {
        "Parameter": [
          {
            "group": "Parameter",
            "type": "<p>String</p> ",
            "optional": false,
            "field": "token",
            "description": "<p>токен пользователя</p> "
          },
          {
            "group": "Parameter",
            "type": "<p>Number</p> ",
            "optional": false,
            "field": "page",
            "description": "<p>номер страницы</p> "
          },
          {
            "group": "Parameter",
            "type": "<p>Number</p> ",
            "optional": false,
            "field": "limit",
            "description": "<p>количество записей на странице</p> "
          }
        ]
      },
      "examples": [
        {
          "title": "Request-Example:",
          "content": "{\n\"token\": \"L34CYRECGQFZMFK7DMLBJCK7BFLFKXV2MOTGOPYGC5OVBEEI677OEO6BZYTWTIG3AZNSYV5OQ7B2TGLSF2XN5566IVOJSK4D3I3DP4EVX\",\n  \"page\":1,\n\"limit\":100\n}",
          "type": "json"
        }
      ]
    },
    "sampleRequest": [
      {
        "url": "http://buildapp.dev-xelentec.com:1340/api/order/get_mine"
      }
    ],
    "version": "0.0.0",
    "filename": "./apidoc/api.js",
    "groupTitle": "Order"
  },
  {
    "type": "post",
    "url": "/api/order/unfollow",
    "title": "Отписаться от заявки",
    "name": "Unfollow_order",
    "group": "Order",
    "parameter": {
      "fields": {
        "Parameter": [
          {
            "group": "Parameter",
            "type": "<p>String</p> ",
            "optional": false,
            "field": "token",
            "description": "<p>токен пользователя</p> "
          },
          {
            "group": "Parameter",
            "type": "<p>Number</p> ",
            "optional": false,
            "field": "id",
            "description": "<p>id заявки</p> "
          }
        ]
      },
      "examples": [
        {
          "title": "Request-Example:",
          "content": "{\n\"token\": \"L34CYRECGQFZMFK7DMLBJCK7BFLFKXV2MOTGOPYGC5OVBEEI677OEO6BZYTWTIG3AZNSYV5OQ7B2TGLSF2XN5566IVOJSK4D3I3DP4EVX\",\n\"id\":74\n   \n}",
          "type": "json"
        }
      ]
    },
    "sampleRequest": [
      {
        "url": "http://buildapp.dev-xelentec.com:1340/api/order/unfollow"
      }
    ],
    "version": "0.0.0",
    "filename": "./apidoc/api.js",
    "groupTitle": "Order"
  },
  {
    "type": "post",
    "url": "/api/user/add_skill",
    "title": "Добавить навык",
    "name": "Add_skill",
    "group": "User",
    "parameter": {
      "fields": {
        "Parameter": [
          {
            "group": "Parameter",
            "type": "<p>String</p> ",
            "optional": false,
            "field": "token",
            "description": "<p>токен пользователя</p> "
          },
          {
            "group": "Parameter",
            "type": "<p>Number</p> ",
            "optional": false,
            "field": "skill",
            "description": "<p>id навыка</p> "
          }
        ]
      },
      "examples": [
        {
          "title": "Request-Example:",
          "content": "{\n\"token\": \"L34CYRECGQFZMFK7DMLBJCK7BFLFKXV2MOTGOPYGC5OVBEEI677OEO6BZYTWTIG3AZNSYV5OQ7B2TGLSF2XN5566IVOJSK4D3I3DP4EVX\",\n\"skill\":2\n}",
          "type": "json"
        }
      ]
    },
    "sampleRequest": [
      {
        "url": "http://buildapp.dev-xelentec.com:1340/api/user/add_skill"
      }
    ],
    "version": "0.0.0",
    "filename": "./apidoc/api.js",
    "groupTitle": "User"
  },
  {
    "type": "put",
    "url": "/api/user/edit",
    "title": "Редактирование профиля",
    "name": "Edit_profile",
    "group": "User",
    "parameter": {
      "fields": {
        "Parameter": [
          {
            "group": "Parameter",
            "type": "<p>String</p> ",
            "optional": false,
            "field": "token",
            "description": "<p>токен пользователя</p> "
          },
          {
            "group": "Parameter",
            "type": "<p>String</p> ",
            "optional": false,
            "field": "name",
            "description": "<p>Имя пользователя</p> "
          },
          {
            "group": "Parameter",
            "type": "<p>Number</p> ",
            "optional": false,
            "field": "city",
            "description": "<p>id города</p> "
          },
          {
            "group": "Parameter",
            "type": "<p>String</p> ",
            "optional": false,
            "field": "photo",
            "description": "<p>URL фотографии пользователя</p> "
          }
        ]
      },
      "examples": [
        {
          "title": "Request-Example:",
          "content": "{\n\"token\": \"L34CYRECGQFZMFK7DMLBJCK7BFLFKXV2MOTGOPYGC5OVBEEI677OEO6BZYTWTIG3AZNSYV5OQ7B2TGLSF2XN5566IVOJSK4D3I3DP4EVX\",\n\"name\":\"myName\",\n\"city\":12,\n\"photo\":\"http.....jpg\"\n}",
          "type": "json"
        }
      ]
    },
    "sampleRequest": [
      {
        "url": "http://buildapp.dev-xelentec.com:1340/api/user/edit"
      }
    ],
    "version": "0.0.0",
    "filename": "./apidoc/api.js",
    "groupTitle": "User"
  },
  {
    "type": "put",
    "url": "/api/user/get_user",
    "title": "Профиль пользователя",
    "name": "Get_user_profile",
    "group": "User",
    "parameter": {
      "fields": {
        "Parameter": [
          {
            "group": "Parameter",
            "type": "<p>String</p> ",
            "optional": false,
            "field": "token",
            "description": "<p>токен пользователя</p> "
          },
          {
            "group": "Parameter",
            "type": "<p>Number</p> ",
            "optional": false,
            "field": "id",
            "description": "<p>id пользователя</p> "
          }
        ]
      },
      "examples": [
        {
          "title": "Request-Example:",
          "content": "{\n\"token\": \"L34CYRECGQFZMFK7DMLBJCK7BFLFKXV2MOTGOPYGC5OVBEEI677OEO6BZYTWTIG3AZNSYV5OQ7B2TGLSF2XN5566IVOJSK4D3I3DP4EVX\",\n\"id\":2\n}",
          "type": "json"
        }
      ]
    },
    "sampleRequest": [
      {
        "url": "http://buildapp.dev-xelentec.com:1340/api/user/get_user"
      }
    ],
    "version": "0.0.0",
    "filename": "./apidoc/api.js",
    "groupTitle": "User"
  },
  {
    "type": "post",
    "url": "/api/user/login",
    "title": "Вход/подтверждение телефона ( по умолчанию код 0000)",
    "name": "Login",
    "group": "User",
    "parameter": {
      "fields": {
        "Parameter": [
          {
            "group": "Parameter",
            "type": "<p>String</p> ",
            "optional": false,
            "field": "phone",
            "description": "<p>Телефон</p> "
          },
          {
            "group": "Parameter",
            "type": "<p>String</p> ",
            "optional": false,
            "field": "code",
            "description": "<p>Код подтверждения</p> "
          },
          {
            "group": "Parameter",
            "type": "<p>String</p> ",
            "optional": false,
            "field": "os",
            "description": "<p>Опирационная система (&quot;android&quot; или &quot;ios&quot;)</p> "
          },
          {
            "group": "Parameter",
            "type": "<p>String</p> ",
            "optional": false,
            "field": "push_token",
            "description": "<p>Push токен устройства</p> "
          }
        ]
      }
    },
    "success": {
      "examples": [
        {
          "title": "Success-Response:",
          "content": "    HTTP/1.1 200 OK\n{\n \"id\": 3,\n\"phone\": \"1\",\n\"code\": \"0000\",\n \"token\": \"VBDV5OUYD77QVPLITA2WNNWTKTKNT6CXSVXT7EWPBJKANBVZWQWRON3VQBKQXG5XGPYNUHVLG426XNIDL4722M5MWTNG74F227DGSHSFY\",\n \"userskills\": []\n}",
          "type": "json"
        }
      ]
    },
    "sampleRequest": [
      {
        "url": "http://buildapp.dev-xelentec.com:1340/api/user/login"
      }
    ],
    "version": "0.0.0",
    "filename": "./apidoc/api.js",
    "groupTitle": "User"
  },
  {
    "type": "put",
    "url": "/api/user/my_profile",
    "title": "Мой профиль",
    "name": "My_profile",
    "group": "User",
    "parameter": {
      "fields": {
        "Parameter": [
          {
            "group": "Parameter",
            "type": "<p>String</p> ",
            "optional": false,
            "field": "token",
            "description": "<p>токен пользователя</p> "
          }
        ]
      },
      "examples": [
        {
          "title": "Request-Example:",
          "content": "{\n\"token\": \"L34CYRECGQFZMFK7DMLBJCK7BFLFKXV2MOTGOPYGC5OVBEEI677OEO6BZYTWTIG3AZNSYV5OQ7B2TGLSF2XN5566IVOJSK4D3I3DP4EVX\",\n}",
          "type": "json"
        }
      ]
    },
    "success": {
      "examples": [
        {
          "title": "Success-Response:",
          "content": "{\n\"id\": 2,\n \"phone\": \"123\",\n \"code\": \"0000\",\n\"token\": \"L34CYRECGQFZMFK7DMLBJCK7BFLFKXV2MOTGOPYGC5OVBEEI677OEO6BZYTWTIG3AZNSYV5OQ7B2TGLSF2XN5566IVOJSK4D3I3DP4EVX\",\n\"name\": \"myName\",\n\"city\": 12,\n \"photo\": \"132\",\n\"userskills\": [\n   {\n     \"skill\": 3\n  },\n {\n    \"skill\": 2\n  },\n  {\n    \"skill\": 1\n  },\n  {\n    \"skill\": 4\n }\n ]\n}",
          "type": "json"
        }
      ]
    },
    "sampleRequest": [
      {
        "url": "http://buildapp.dev-xelentec.com:1340/api/user/my_profile"
      }
    ],
    "version": "0.0.0",
    "filename": "./apidoc/api.js",
    "groupTitle": "User"
  },
  {
    "type": "post",
    "url": "/api/user/singup",
    "title": "Регистрация/Отправка СМС",
    "name": "Registration",
    "group": "User",
    "parameter": {
      "fields": {
        "Parameter": [
          {
            "group": "Parameter",
            "type": "<p>String</p> ",
            "optional": false,
            "field": "phone",
            "description": "<p>Телефон</p> "
          }
        ]
      }
    },
    "success": {
      "examples": [
        {
          "title": "Success-Response:",
          "content": "    HTTP/1.1 200 OK\n{\n\"data\": \"message sent\"\n}",
          "type": "json"
        }
      ]
    },
    "sampleRequest": [
      {
        "url": "http://buildapp.dev-xelentec.com:1340/api/user/singup"
      }
    ],
    "version": "0.0.0",
    "filename": "./apidoc/api.js",
    "groupTitle": "User"
  },
  {
    "type": "post",
    "url": "/api/user/remove_skill",
    "title": "Удалить навык",
    "name": "Remove_skill",
    "group": "User",
    "parameter": {
      "fields": {
        "Parameter": [
          {
            "group": "Parameter",
            "type": "<p>String</p> ",
            "optional": false,
            "field": "token",
            "description": "<p>токен пользователя</p> "
          },
          {
            "group": "Parameter",
            "type": "<p>Number</p> ",
            "optional": false,
            "field": "skill",
            "description": "<p>id навыка</p> "
          }
        ]
      },
      "examples": [
        {
          "title": "Request-Example:",
          "content": "{\n\"token\": \"L34CYRECGQFZMFK7DMLBJCK7BFLFKXV2MOTGOPYGC5OVBEEI677OEO6BZYTWTIG3AZNSYV5OQ7B2TGLSF2XN5566IVOJSK4D3I3DP4EVX\",\n\"skill\":2\n}",
          "type": "json"
        }
      ]
    },
    "sampleRequest": [
      {
        "url": "http://buildapp.dev-xelentec.com:1340/api/user/remove_skill"
      }
    ],
    "version": "0.0.0",
    "filename": "./apidoc/api.js",
    "groupTitle": "User"
  },
  {
    "type": "get",
    "url": "/api/user/skills",
    "title": "Перечень навыков",
    "name": "Skills_list",
    "group": "User",
    "parameter": {
      "fields": {
        "Parameter": [
          {
            "group": "Parameter",
            "type": "<p>String</p> ",
            "optional": false,
            "field": "token",
            "description": "<p>токен пользователя</p> "
          }
        ]
      }
    },
    "success": {
      "examples": [
        {
          "title": "Success-Response:",
          "content": "[\n {\n   \"id\": 2,\n   \"name\": \"skill 1\"\n },\n {\n   \"id\": 3,\n   \"name\": \"skill 2\"\n },\n {\n   \"id\": 4,\n   \"name\": \"skill 3\"\n }\n]",
          "type": "json"
        }
      ]
    },
    "sampleRequest": [
      {
        "url": "http://buildapp.dev-xelentec.com:1340/api/user/skills"
      }
    ],
    "version": "0.0.0",
    "filename": "./apidoc/api.js",
    "groupTitle": "User"
  },
  {
    "type": "post",
    "url": "/api/user/upload",
    "title": "Загрузить фото",
    "name": "Upload_file",
    "group": "User",
    "parameter": {
      "fields": {
        "Parameter": [
          {
            "group": "Parameter",
            "type": "<p>File</p> ",
            "optional": false,
            "field": "images",
            "description": "<p>изображение ( возможна отправка массивом)</p> "
          }
        ]
      }
    },
    "success": {
      "examples": [
        {
          "title": "Success-Response:",
          "content": "{\n\"data\": [\n  \"uploads/images/64b13ae4-cecf-4e39-a9a3-054e569d229f.js\",\n  \"uploads/images/637c94e4-76f1-472c-b68b-4ae49bdb0e0b.sql\"\n]\n}",
          "type": "json"
        }
      ]
    },
    "version": "0.0.0",
    "filename": "./apidoc/api.js",
    "groupTitle": "User"
  },
  {
    "success": {
      "fields": {
        "Success 200": [
          {
            "group": "Success 200",
            "optional": false,
            "field": "varname1",
            "description": "<p>No type.</p> "
          },
          {
            "group": "Success 200",
            "type": "<p>String</p> ",
            "optional": false,
            "field": "varname2",
            "description": "<p>With type.</p> "
          }
        ]
      }
    },
    "type": "",
    "url": "",
    "version": "0.0.0",
    "filename": "./apidoc/doc/main.js",
    "group": "_var_www_buildapp_assets_apidoc_doc_main_js",
    "groupTitle": "_var_www_buildapp_assets_apidoc_doc_main_js",
    "name": ""
  },
  {
    "success": {
      "fields": {
        "Success 200": [
          {
            "group": "Success 200",
            "optional": false,
            "field": "varname1",
            "description": "<p>No type.</p> "
          },
          {
            "group": "Success 200",
            "type": "<p>String</p> ",
            "optional": false,
            "field": "varname2",
            "description": "<p>With type.</p> "
          }
        ]
      }
    },
    "type": "",
    "url": "",
    "version": "0.0.0",
    "filename": "./apidoc/main.js",
    "group": "_var_www_buildapp_assets_apidoc_main_js",
    "groupTitle": "_var_www_buildapp_assets_apidoc_main_js",
    "name": ""
  },
  {
    "success": {
      "fields": {
        "Success 200": [
          {
            "group": "Success 200",
            "optional": false,
            "field": "varname1",
            "description": "<p>No type.</p> "
          },
          {
            "group": "Success 200",
            "type": "<p>String</p> ",
            "optional": false,
            "field": "varname2",
            "description": "<p>With type.</p> "
          }
        ]
      }
    },
    "type": "",
    "url": "",
    "version": "0.0.0",
    "filename": "./doc/main.js",
    "group": "_var_www_buildapp_assets_doc_main_js",
    "groupTitle": "_var_www_buildapp_assets_doc_main_js",
    "name": ""
  },
  {
    "type": "",
    "url": "private",
    "title": "",
    "version": "0.0.0",
    "filename": "./js/dependencies/sails.io.js",
    "group": "_var_www_buildapp_assets_js_dependencies_sails_io_js",
    "groupTitle": "_var_www_buildapp_assets_js_dependencies_sails_io_js",
    "name": "Private"
  },
  {
    "type": "",
    "url": "private",
    "title": "",
    "version": "0.0.0",
    "filename": "./js/dependencies/sails.io.js",
    "group": "_var_www_buildapp_assets_js_dependencies_sails_io_js",
    "groupTitle": "_var_www_buildapp_assets_js_dependencies_sails_io_js",
    "name": "Private"
  },
  {
    "type": "",
    "url": "private",
    "title": "",
    "version": "0.0.0",
    "filename": "./js/dependencies/sails.io.js",
    "group": "_var_www_buildapp_assets_js_dependencies_sails_io_js",
    "groupTitle": "_var_www_buildapp_assets_js_dependencies_sails_io_js",
    "name": "Private"
  },
  {
    "type": "",
    "url": "private",
    "title": "",
    "version": "0.0.0",
    "filename": "./js/dependencies/sails.io.js",
    "group": "_var_www_buildapp_assets_js_dependencies_sails_io_js",
    "groupTitle": "_var_www_buildapp_assets_js_dependencies_sails_io_js",
    "name": "Private"
  },
  {
    "type": "",
    "url": "private",
    "title": "",
    "version": "0.0.0",
    "filename": "./js/dependencies/sails.io.js",
    "group": "_var_www_buildapp_assets_js_dependencies_sails_io_js",
    "groupTitle": "_var_www_buildapp_assets_js_dependencies_sails_io_js",
    "name": "Private"
  },
  {
    "type": "",
    "url": "private",
    "title": "",
    "version": "0.0.0",
    "filename": "./js/dependencies/sails.io.js",
    "group": "_var_www_buildapp_assets_js_dependencies_sails_io_js",
    "groupTitle": "_var_www_buildapp_assets_js_dependencies_sails_io_js",
    "name": "Private"
  },
  {
    "type": "",
    "url": "public",
    "title": "",
    "version": "0.0.0",
    "filename": "./js/dependencies/sails.io.js",
    "group": "_var_www_buildapp_assets_js_dependencies_sails_io_js",
    "groupTitle": "_var_www_buildapp_assets_js_dependencies_sails_io_js",
    "name": "Public"
  },
  {
    "type": "",
    "url": "public",
    "title": "",
    "version": "0.0.0",
    "filename": "./js/dependencies/sails.io.js",
    "group": "_var_www_buildapp_assets_js_dependencies_sails_io_js",
    "groupTitle": "_var_www_buildapp_assets_js_dependencies_sails_io_js",
    "name": "Public"
  },
  {
    "type": "",
    "url": "public",
    "title": "",
    "version": "0.0.0",
    "filename": "./js/dependencies/sails.io.js",
    "group": "_var_www_buildapp_assets_js_dependencies_sails_io_js",
    "groupTitle": "_var_www_buildapp_assets_js_dependencies_sails_io_js",
    "name": "Public"
  },
  {
    "type": "",
    "url": "public",
    "title": "",
    "version": "0.0.0",
    "filename": "./js/dependencies/sails.io.js",
    "group": "_var_www_buildapp_assets_js_dependencies_sails_io_js",
    "groupTitle": "_var_www_buildapp_assets_js_dependencies_sails_io_js",
    "name": "Public"
  },
  {
    "type": "",
    "url": "public",
    "title": "",
    "version": "0.0.0",
    "filename": "./js/dependencies/sails.io.js",
    "group": "_var_www_buildapp_assets_js_dependencies_sails_io_js",
    "groupTitle": "_var_www_buildapp_assets_js_dependencies_sails_io_js",
    "name": "Public"
  },
  {
    "type": "",
    "url": "public",
    "title": "",
    "version": "0.0.0",
    "filename": "./js/dependencies/sails.io.js",
    "group": "_var_www_buildapp_assets_js_dependencies_sails_io_js",
    "groupTitle": "_var_www_buildapp_assets_js_dependencies_sails_io_js",
    "name": "Public"
  },
  {
    "type": "",
    "url": "public",
    "title": "",
    "version": "0.0.0",
    "filename": "./js/dependencies/sails.io.js",
    "group": "_var_www_buildapp_assets_js_dependencies_sails_io_js",
    "groupTitle": "_var_www_buildapp_assets_js_dependencies_sails_io_js",
    "name": "Public"
  },
  {
    "success": {
      "fields": {
        "Success 200": [
          {
            "group": "Success 200",
            "optional": false,
            "field": "varname1",
            "description": "<p>No type.</p> "
          },
          {
            "group": "Success 200",
            "type": "<p>String</p> ",
            "optional": false,
            "field": "varname2",
            "description": "<p>With type.</p> "
          }
        ]
      }
    },
    "type": "",
    "url": "",
    "version": "0.0.0",
    "filename": "./main.js",
    "group": "_var_www_buildapp_assets_main_js",
    "groupTitle": "_var_www_buildapp_assets_main_js",
    "name": ""
  }
]